…
``` r
## Topics that Worked
(worked_topic <- gtrend_topic %>%
    count(Show, Season, Episode, keyword) %>%
    filter(n >= 7))
```

    ## # A tibble: 1,133 × 5
    ##    Show              Season Episode keyword                                    n
    ##    <chr>              <dbl>   <int> <chr>                                  <int>
    ##  1 Last Week Tonight      1       2 Capital punishment                        29
    ##  2 Last Week Tonight      1       4 Mario Costeja González)                   29
    ##  3 Last Week Tonight      1       4 Right to be forgotten (Google Spain v…    29
    ##  4 Last Week Tonight      1       5 Net neutrality                            29
    ##  5 Last Week Tonight      1       6 FIFA                                      29
    ##  6 Last Week Tonight      1       9 Burwell v. Hobby Lobby                    29
    ##  7 Last Week Tonight      1      10 Income inequality                         29
    ##  8 Last Week Tonight      1      10 wealth inequality                         29
    ##  9 Last Week Tonight      1      12 Nuclear weapons                           29
    ## 10 Last Week Tonight      1      12 the United States                         29
    ## # ℹ 1,123 more rows
…
Highest ratios:

``` r
## Keyword by descending ratio
gdat %>%
  filter(ratio != Inf) %>%
  count(Show, Host, Season, Episode, keyword, ratio) %>%
  arrange(-ratio) %>%
  select(-n)
```

    ## # A tibble: 1,133 × 6
    ##    Show           Host        Season Episode keyword                       ratio
    ##    <chr>          <chr>        <dbl>   <int> <chr>                         <dbl>
    ##  1 The Daily Show Trevor Noah     22       1 The Increasingly Poor Decisi…   497
    ##  2 The Daily Show Jon Stewart     15     160 How Do You Know (film)          428
    ##  3 The Daily Show Jon Stewart     19      26 Ronan Farrow Daily              408
    ##  4 The Daily Show Jon Stewart     19       5 God Loves Uganda                298
    ##  5 The Daily Show Jon Stewart     19     125 Wyatt Cenac                     242
    ##  6 The Daily Show Jon Stewart     19     106 Navai                           216
    ##  7 The Daily Show Jon Stewart     18     139 Demery                          208
    ##  8 The Daily Show Trevor Noah     23     105 Lynching in America             203
    ##  9 The Daily Show Trevor Noah     22      84 This Unruly Mess I've Made      168
    ## 10 The Daily Show Jon Stewart     19      42 FiveThirtyEight.com             166
    ## # ℹ 1,123 more rows

Lowest ratios:

``` r
## Keyword by ascending ratio
gdat %>%
  filter(ratio != Inf) %>%
  count(Show, Host, Season, Episode, keyword, ratio) %>%
  arrange(ratio) %>%
  select(-n)
```

    ## # A tibble: 1,133 × 6
    ##    Show              Host        Season Episode keyword                    ratio
    ##    <chr>             <chr>        <dbl>   <int> <chr>                      <dbl>
    ##  1 Last Week Tonight John Oliver      1       2 Capital punishment             0
    ##  2 Last Week Tonight John Oliver      1       4 Mario Costeja González)        0
    ##  3 Last Week Tonight John Oliver      1       4 Right to be forgotten (Go…     0
    ##  4 Last Week Tonight John Oliver      1       5 Net neutrality                 0
    ##  5 Last Week Tonight John Oliver      1       6 FIFA                           0
    ##  6 Last Week Tonight John Oliver      1       9 Burwell v. Hobby Lobby         0
    ##  7 Last Week Tonight John Oliver      1      10 Income inequality              0
    ##  8 Last Week Tonight John Oliver      1      10 wealth inequality              0
    ##  9 Last Week Tonight John Oliver      1      12 Nuclear weapons                0
    ## 10 Last Week Tonight John Oliver      1      12 the United States              0
    ## # ℹ 1,123 more rows
…
